{
    "nixpkgs": {
        "url": "https://github.com/NixOS/nixpkgs-channels/archive/5d972dd2c94e1a9b0a051d8a280f57905e492120.tar.gz",
        "owner": "NixOS",
        "branch": "nixos-18.09",
        "url_template": "https://github.com/<owner>/<repo>/archive/<rev>.tar.gz",
        "repo": "nixpkgs-channels",
        "type": "tarball",
        "sha256": "0zalscv8lpnhzysiwx2as353gdlkfik8pw75x8s97l847k700wy8",
        "description": "Nixpkgs/NixOS branches that track the Nixpkgs/NixOS channels",
        "rev": "5d972dd2c94e1a9b0a051d8a280f57905e492120"
    },
    "niv": {
        "homepage": "https://github.com/nmattia/niv",
        "url": "https://github.com/nmattia/niv/archive/fc58efb5ed80b0a5bc997db53748c70d62c27603.tar.gz",
        "owner": "nmattia",
        "branch": "master",
        "url_template": "https://github.com/<owner>/<repo>/archive/<rev>.tar.gz",
        "repo": "niv",
        "type": "tarball",
        "sha256": "1yn1pxi5izs3ivfg0i2qj2jrrnw0y8ymhczl9992b0vkckapj9xn",
        "description": "Easy dependency management for Nix projects",
        "rev": "fc58efb5ed80b0a5bc997db53748c70d62c27603"
    }
}
